{
    "KPlugin": {
        "BugReportUrl": "https://bugs.kde.org/enter_bug.cgi?product=systemsettings&component=kcm_wallpaper",
        "Description": "Configure the wallpaper",
        "Description[ar]": "اضبط خلفية الشاشة",
        "Description[az]": "Divar kağızlarını tənzimləmək",
        "Description[be]": "Наладжванне шпалер",
        "Description[bg]": "Настройки на тапета",
        "Description[ca@valencia]": "Configura el fons de pantalla",
        "Description[ca]": "Configura el fons de pantalla",
        "Description[cs]": "Nastavit tapetu",
        "Description[da]": "Konfigurér baggrunden",
        "Description[de]": "Das Hintergrundbild einrichten",
        "Description[eo]": "Agordi la ekranfonon",
        "Description[es]": "Configurar el fondo de escritorio",
        "Description[eu]": "Konfiguratu horma-papera",
        "Description[fi]": "Taustakuvan asetukset",
        "Description[fr]": "Configurer le fond d'écran ",
        "Description[gl]": "Configurar o fondo…",
        "Description[he]": "הגדרת תמונת הרקע",
        "Description[hu]": "A háttérkép beállítása",
        "Description[ia]": "Configura le tapete de papiro",
        "Description[is]": "Grunnstilla veggfóðrið",
        "Description[it]": "Configura lo sfondo",
        "Description[ja]": "壁紙の設定",
        "Description[ka]": "ფონური სურათის მორგება",
        "Description[ko]": "배경 그림 설정",
        "Description[lt]": "Konfigūruoti darbalaukio foną",
        "Description[lv]": "Pārvaldiet ekrāna tapeti",
        "Description[nl]": "De achtergrond configureren",
        "Description[nn]": "Set opp bakgrunnsbiletet",
        "Description[pa]": "ਵਾਲਪੇਪਰ ਦੀ ਸੰਰਚਨਾ",
        "Description[pl]": "Ustawienia tapety",
        "Description[pt_BR]": "Configurar o papel de parede",
        "Description[ro]": "Configurează tapetul",
        "Description[ru]": "Выбор обоев рабочего стола",
        "Description[sk]": "Nastaviť pozadie",
        "Description[sl]": "Konfiguriraj tapeto",
        "Description[sv]": "Anpassa skrivbordsunderlägget",
        "Description[ta]": "பின்புலப்படத்தை அமை",
        "Description[tr]": "Duvar kağıdını yapılandırın",
        "Description[uk]": "Налаштовування фонового зображення",
        "Description[x-test]": "xxConfigure the wallpaperxx",
        "Description[zh_CN]": "配置壁纸",
        "Description[zh_TW]": "設定桌布",
        "Icon": "preferences-desktop-wallpaper",
        "Name": "Wallpaper",
        "Name[ar]": "الخلفية",
        "Name[az]": "Divar Kağızı",
        "Name[be]": "Шпалеры",
        "Name[bg]": "Тапет",
        "Name[bs]": "Pozadina",
        "Name[ca@valencia]": "Fons de pantalla",
        "Name[ca]": "Fons de pantalla",
        "Name[cs]": "Tapeta",
        "Name[da]": "Baggrundsbillede",
        "Name[de]": "Hintergrundbild",
        "Name[el]": "Ταπετσαρία",
        "Name[eo]": "Ekranfono",
        "Name[es]": "Fondo del escritorio",
        "Name[et]": "Taustapilt",
        "Name[eu]": "Horma-papera",
        "Name[fi]": "Tausta",
        "Name[fr]": "Fond d'écran",
        "Name[gl]": "Fondo de escritorio",
        "Name[he]": "טפט",
        "Name[hi]": "वाॅलपेपर",
        "Name[hsb]": "Pozadk dźěłoweho powjercha",
        "Name[hu]": "Háttérkép",
        "Name[ia]": "Tapete de papiro",
        "Name[is]": "Veggfóður",
        "Name[it]": "Sfondo",
        "Name[ja]": "壁紙",
        "Name[ka]": "ფონური სურათი",
        "Name[ko]": "배경 그림",
        "Name[lt]": "Darbalaukio fonas",
        "Name[lv]": "Darbvirsmas tapete",
        "Name[ml]": "പശ്ചാത്തലചിത്രം",
        "Name[nb]": "Bakgrunnsbilde",
        "Name[nds]": "Achtergrundbild",
        "Name[nl]": "Achtergrondafbeelding",
        "Name[nn]": "Bakgrunnsbilete",
        "Name[pa]": "ਵਾਲਪੇਪਰ",
        "Name[pl]": "Tapeta",
        "Name[pt_BR]": "Papel de parede",
        "Name[ro]": "Tapet",
        "Name[ru]": "Обои",
        "Name[sk]": "Tapeta",
        "Name[sl]": "Slika ozadja",
        "Name[sr@ijekavian]": "Тапет",
        "Name[sr@ijekavianlatin]": "Tapet",
        "Name[sr@latin]": "Tapet",
        "Name[sr]": "Тапет",
        "Name[sv]": "Skrivbordsunderlägg",
        "Name[ta]": "பின்னணிப் படம்",
        "Name[tok]": "sitelen monsi",
        "Name[tr]": "Duvar Kağıdı",
        "Name[uk]": "Зображення тла",
        "Name[vi]": "Phông nền",
        "Name[x-test]": "xxWallpaperxx",
        "Name[zh_CN]": "壁纸",
        "Name[zh_TW]": "桌布"
    },
    "X-DocPath": "kcontrol/kcm_wallpaper/index.html",
    "X-KDE-Init-Phase": 0,
    "X-KDE-Keywords": "wallpaper,desktop",
    "X-KDE-System-Settings-Parent-Category": "appearance",
    "X-KDE-Weight": 10
}
