{
    "KPackageStructure": "Plasma/Applet",
    "KPlugin": {
        "Authors": [
            {
                "Email": "kde@privat.broulik.de",
                "Name": "Kai Uwe Broulik",
                "Name[he]": "קאי אווה ברוליק",
                "Name[hi]": "काई उवे ब्रोलिक",
                "Name[ka]": "კაი უვე ბროულიკი",
                "Name[pa]": "ਕੋਈ ਉਵੇ ਬਰੋਉਲਿਕ",
                "Name[sa]": "कै उवे ब्रौलिक्",
                "Name[ta]": "காய் ஊவே புரோலிக்",
                "Name[x-test]": "xxKai Uwe Broulikxx"
            }
        ],
        "BugReportUrl": "https://bugs.kde.org/enter_bug.cgi?product=plasmashell&component=System%20Monitor",
        "Category": "System Information",
        "Description": "System monitor Widget that shows usage of individual CPU cores",
        "Description[ar]": "أداة مراقبة النظام التي تعرض استخدام كل نواة من المعالج",
        "Description[az]": "Sistem monitoru vidjeti hər CPU nüvəsinin istifadəsini göstərir",
        "Description[be]": "Віджэт сістэмнага назіральніка, які паказвае выкарыстанне ядзер працэсара паасобку",
        "Description[bg]": "Уиджет за системен монитор, който показва използването на отделни ядра на процесора",
        "Description[ca@valencia]": "Giny del monitor del sistema que mostra l'ús individual dels nuclis de la CPU",
        "Description[ca]": "Giny del monitor del sistema que mostra l'ús individual dels nuclis de la CPU",
        "Description[cs]": "Widget monitoru systému, zobrazující využití jednotlivých jader CPU",
        "Description[da]": "Systemovervågning-widget som viser brug af hver CPU-kerne",
        "Description[de]": "Systemmonitor-Miniprogramm, das die Auslastung einzelner CPU-Kerne anzeigt",
        "Description[eo]": "Sistemmonitora Fenestraĵo kiu montras uzadon de individuaj CPU-kernoj",
        "Description[es]": "Elemento gráfico del monitor del sistema que muestra el uso de los núcleos individuales de la CPU",
        "Description[et]": "Süsteemi jälgija vidin, mis näitab iga protsessorituuma kasutust",
        "Description[eu]": "PUZeko nukleoen banakako erabilera erakusten duen sistema gainbegiratzeko trepeta",
        "Description[fi]": "Yksittäisten järjestelmäydinten käytön näyttävä järjestelmänvalvontasovelma",
        "Description[fr]": "Composant graphique de surveillance du système, affichant l'utilisation de chaque cœur du processeur.",
        "Description[gl]": "Trebello de vixilancia do sistema que mostra o uso de núcleos de procesador individuais.",
        "Description[he]": "יישומון צג מערכת שמציג ניצולת של ליבות מעבד בנפרד",
        "Description[hi]": "तंत्र परिवीक्षक विजेट जो अलग-अलग सीपीयू कोर का उपयोग दिखाता है",
        "Description[hu]": "Rendszermonitor elem, amely az egyes logikai processzorok használatát mutatja",
        "Description[ia]": "Widget de supervision de systema que monstra le uso del nucleos individual",
        "Description[id]": "Widget pemantau sistem yang menampilkan penggunaan core CPU individual",
        "Description[is]": "Kerfisvöktunargræja sem sýnir notkun á einstökum örgjörvakjörnum",
        "Description[it]": "Oggetto di monitoraggio del sistema che mostra l'utilizzo dei singoli core del processore",
        "Description[ja]": "CPU の各コアの使用率を表示するウィジェット",
        "Description[ka]": "სისტემური მონიტორის ვიჯეტი, რომელიც CPU-ის ბირთვებს სათითაოდ აჩვენებს",
        "Description[ko]": "개별 CPU 코어 사용량을 표시하는 시스템 모니터 위젯",
        "Description[lt]": "Sistemos prižiūryklės valdiklis, kuris rodo atskirų procesoriaus branduolių naudojimą",
        "Description[lv]": "Sistēmas pārraudzības logdaļa, kas parāda CPU kodolu noslodzi",
        "Description[nl]": "Systeemmonitorwidget die gebruik toont van individuele CPU-kernen",
        "Description[nn]": "System­overvaking som viser bruk av einskilde prosessor­kjernar",
        "Description[pa]": "ਵੱਖ-ਵੱਖ CPU ਕੋਰਾਂ ਦੀ ਵਰਤੋਂ ਵਿਖਾਉਣ ਵਾਲਾ ਸਿਸਟਮ ਮਾਨੀਟਰ ਵਿਜੈੱਟ",
        "Description[pl]": "Element interfejsu, który pokazuje wykorzystanie poszczególnych rdzeni procesora",
        "Description[pt]": "Elemento de monitorização do sistema que mostra a carga individual de cada núcleo do CPU",
        "Description[pt_BR]": "Widget monitor do sistema que mostra o uso individual dos núcleos da CPU",
        "Description[ro]": "Control grafic de monitorizare a sistemului ce arată utilizarea nucleelor individuale ale procesorului",
        "Description[ru]": "Мониторинг загрузки процессора, предоставляющий сведения об индивидуальном использовании ядер",
        "Description[sa]": "सङ्गणकतन्त्रस्य निरीक्षकस्य विजेट् यत् व्यक्तिगत CPU कोर्स् इत्यस्य उपयोगं दर्शयति",
        "Description[sk]": "Miniaplikácia monitorovania systému, ktorá zobrazuje využitie jednotlivých jadier",
        "Description[sl]": "Gradnik sistemskega monitorja, ki prikazuje rabo posameznega jedra CPE",
        "Description[sv]": "Grafisk systemövervakningskomponent som visar användning av individuella processorkärnor",
        "Description[ta]": "தனிப்பட்ட CPU core-களின் பயன்பாட்டைக் காட்டும் பிளாஸ்மாய்ட்",
        "Description[tr]": "Bireysel CPU çekirdeklerini gösteren sistem monitörü araç takımı",
        "Description[uk]": "Віджет нагляду за системою, який показує використання окремих ядер процесора",
        "Description[vi]": "Phụ kiện giám sát hệ thống cho biết lượng dùng các lõi CPU riêng lẻ",
        "Description[x-test]": "xxSystem monitor Widget that shows usage of individual CPU coresxx",
        "Description[zh_CN]": "显示单个 CPU 核心使用情况的系统监视挂件",
        "Description[zh_TW]": "顯示個別 CPU 核心用量的系統監控元件",
        "EnabledByDefault": true,
        "FormFactors": [
            "desktop"
        ],
        "Icon": "ksysguardd",
        "Id": "org.kde.plasma.systemmonitor.cpucore",
        "License": "GPL-2.0+",
        "Name": "Individual Core Usage",
        "Name[ar]": "استخدام النوى الفردية",
        "Name[az]": "MP nüvəsinin yükü",
        "Name[be]": "Выкарыстанне ядзер працэсара",
        "Name[bg]": "Използване на ядрата на процесора",
        "Name[ca@valencia]": "Ús individual del nucli",
        "Name[ca]": "Ús individual del nucli",
        "Name[da]": "Brug af hver kerne",
        "Name[de]": "Auslastung einzelner Prozessorkerne",
        "Name[eo]": "Uzado de Individuaj Kernoj",
        "Name[es]": "Uso de núcleos individuales",
        "Name[et]": "Iga tuuma kasutus",
        "Name[eu]": "Nukleoen banakako erabilera",
        "Name[fi]": "Yksittäisten ydinten käyttö",
        "Name[fr]": "Utilisation de chaque cœur ",
        "Name[gl]": "Uso de núcleos individuais",
        "Name[he]": "ניצולת לליבה בודדת",
        "Name[hi]": "व्यक्तिगत कोर उपयोग ",
        "Name[hu]": "Logikai processzorok használata",
        "Name[ia]": "Uso de nucleo (core) individual",
        "Name[id]": "Penggunaan Core Individual",
        "Name[is]": "Notkun einstakra kjarna",
        "Name[it]": "Utilizzo del singolo core",
        "Name[ja]": "各コアの使用率",
        "Name[ka]": "თითოეული ბირთვის დატვირთვა",
        "Name[ko]": "개별 코어 사용량",
        "Name[lt]": "Atskirų branduolių naudojimas",
        "Name[lv]": "Atsevišķa kodola noslodze",
        "Name[ml]": "വ്യക്തിഗത കോർ ഉപയോഗം",
        "Name[nl]": "Individueel gebruik van kernen",
        "Name[nn]": "Einskildkjerne-bruk",
        "Name[pa]": "ਵੱਖੋ-ਵੱਖ ਕੋਰ ਵਰਤੋਂ",
        "Name[pl]": "Wykorzystanie na rdzeń",
        "Name[pt]": "Carga dos Núcleos Individuais",
        "Name[pt_BR]": "Uso individual do núcleo",
        "Name[ro]": "Utilizare individuală nuclee",
        "Name[ru]": "Загрузка ядер ЦП",
        "Name[sa]": "व्यक्तिगत मूलप्रयोग",
        "Name[sk]": "Využitie jednotlivých jadier",
        "Name[sl]": "Poraba posameznega jedra",
        "Name[sv]": "Användning av individuella kärnor",
        "Name[ta]": "தனிப்பட்ட கணிப்பி பயன்பாட்டு",
        "Name[tok]": "kepeken pi ilo nanpa wan",
        "Name[tr]": "Bireysel Çekirdek Kullanımı",
        "Name[uk]": "Використання окремих ядер",
        "Name[vi]": "Lượng dùng mỗi lõi riêng lẻ",
        "Name[x-test]": "xxIndividual Core Usagexx",
        "Name[zh_CN]": "单个核心使用率",
        "Name[zh_TW]": "獨立核心用量",
        "Website": "https://www.kde.org/plasma-desktop"
    },
    "X-Plasma-API-Minimum-Version": "6.0",
    "X-Plasma-Provides": [
        "org.kde.plasma.systemmonitor"
    ],
    "X-Plasma-RootPath": "org.kde.plasma.systemmonitor"
}
